[
  {
    "path": "/pivotal/services/v5/my/workspaces",
    "response": []
  },
  {
    "path": "/pivotal/services/v5/projects",
    "response": 	[{"id":2182342,"kind":"project","name":"OneDevOps","version":6152,"iteration_length":2,"week_start_day":"Monday","point_scale":"0,1,2,3,5,8","point_scale_is_custom":false,"bugs_and_chores_are_estimatable":false,"automatic_planning":true,"enable_tasks":true,"time_zone":{"kind":"time_zone","olson_name":"America/Los_Angeles","offset":"-07:00"},"velocity_averaged_over":3,"number_of_done_iterations_to_show":4,"has_google_domain":false,"enable_incoming_emails":true,"initial_velocity":100,"public":false,"atom_enabled":false,"project_type":"private","start_time":"2018-07-09T07:00:00Z","created_at":"2018-07-02T13:35:24Z","updated_at":"2018-07-25T18:59:46Z","account_id":874145,"current_iteration_number":26,"enable_following":true}]
  },
  {
    "path": "/pivotal/services/v5/projects/2182342/epics",
    "response": [{"id":4350672,"kind":"epic","created_at":"2019-06-21T06:43:42Z","updated_at":"2019-06-21T06:43:42Z","project_id":2182342,"name":"Insights - Push Model Subscription ","description":"This epic is to describe the stories which are needed for push model data subscription","url":"https://www.pivotaltracker.com/epic/show/4350672","label":{"id":21435063,"project_id":2182342,"kind":"label","name":"insights - push model subscription","created_at":"2019-06-21T06:43:42Z","updated_at":"2019-06-21T06:43:42Z"}}]
  },
  {
    "path": "/pivotal/services/v5/projects/2182342/stories",
	"parameters" : {
		"updated_after": "2019-06-27T09:37:12Z",
		"limit": "10",
		"offset": "0"
	},
    "response": [{"id":4350672,"kind":"epic","created_at":"2019-06-21T06:43:42Z","updated_at":"2019-06-21T06:43:42Z","project_id":2182342,"name":"Insights - Push Model Subscription ","description":"This epic is to describe the stories which are needed for push model data subscription","url":"https://www.pivotaltracker.com/epic/show/4350672","label":{"id":21435063,"project_id":2182342,"kind":"label","name":"insights - push model subscription","created_at":"2019-06-21T06:43:42Z","updated_at":"2019-06-21T06:43:42Z"}}]
  },
  {
    "path": "/pivotal/services/v5/projects/2182342/stories.*",
    "response": []
  },
  {
    "path": "/pivotal/services/v5/projects/2182342/activity",
	"parameters" : {
		"occurred_after": "2015-11-29T12:17:45Z",
		"limit": "10",
		"offset": "0"
	},
    "response": [{"kind":"task_update_activity","guid":"2182342_6152","project_version":6152,"message":"surbhigupta1 completed task: \"Adding confirmation boxes.\"","highlight":"completed task:","changes":[{"kind":"story","change_type":"update","id":165934309,"original_values":{"updated_at":"2019-07-02T06:02:19Z"},"new_values":{"updated_at":"2019-07-02T06:42:47Z"},"name":"Bulk Upload - Application Related Changes","story_type":"feature"},{"kind":"task","change_type":"update","id":66727687,"original_values":{"complete":false,"updated_at":"2019-07-02T04:28:40Z"},"new_values":{"complete":true,"updated_at":"2019-07-02T06:42:47Z"}}],"primary_resources":[{"kind":"story","id":165934309,"name":"Bulk Upload - Application Related Changes","story_type":"feature","url":"https://www.pivotaltracker.com/story/show/165934309"}],"secondary_resources":[],"project":{"kind":"project","id":2182342,"name":"OneDevOps"},"performed_by":{"kind":"person","id":3133265,"name":"surbhigupta1","initials":"su"},"occurred_at":"2019-07-02T06:42:47Z"}]
  },
  {
    "path": "/pivotal/services/v5/projects/2182342/activity.*",
    "response": []
  },
  {
    "path": "/pivotal/services/v5/projects/2182342/iterations",
	"parameters" : {
		"scope": "backlog"
	},
    "response": [{"number":27,"project_id":2182342,"length":2,"team_strength":1,"stories":[{"kind":"story","id":166925499,"created_at":"2019-06-26T09:53:57Z","updated_at":"2019-06-26T09:53:57Z","story_type":"feature","name":"Configuration | Agent Management - UX and Functional Enhancement","description":"**There were two suggestions for update agent from our team in the Agent Update Page**\n1. Labels should be in Human Readable Format - I saw the labels can be updated in the code\n2. All fields do not be editable, fields that are informative should be un-editable ","current_state":"unstarted","requested_by_id":3078453,"url":"https://www.pivotaltracker.com/story/show/166925499","project_id":2182342,"owner_ids":[],"labels":[]},{"kind":"story","id":166925023,"created_at":"2019-06-26T09:27:28Z","updated_at":"2019-06-26T09:52:38Z","story_type":"bug","name":"Configuration | Agent Management - Update Agent","description":"Bugs have been logged as task with screen shot using following URL - http://34.236.204.95:8080/app/#/InSights/Home","current_state":"unstarted","requested_by_id":3078453,"url":"https://www.pivotaltracker.com/story/show/166925023","project_id":2182342,"owner_ids":[],"labels":[]},{"kind":"story","id":166606635,"created_at":"2019-06-11T11:34:43Z","updated_at":"2019-06-19T06:58:46Z","story_type":"bug","name":"Insights agent - Rally agent not failing and not recording error message in health check in case of authentication failure","description":"It has been observed that Rally agent doesn't record a health node in case of authentication failure, even though it logs it. Health check page shows 'Success' message. Agent should log such messages in Neo4j as well as log file.\n\n2019-06-11 16:25:33,142 - ERROR - BaseAgent.py - 395 - execute - RestFacade: Unsupported response code 403, url: https://rally1.rallydev.com/slm/webservice/v2.0/subscription, response received: <html>\n<head>\n<meta http-equiv=\"Content-Type\" content=\"text/html; charset=UTF-8\"/>\n<title>Error 403 CA Agile Central Password Has Expired</title>\n</head>\n<body><h2>HTTP ERROR 403</h2>\n<p>Problem accessing /slm/webservice/v2.0/subscription. Reason:\n<pre>    CA Agile Central Password Has Expired</pre></p><hr><i><small>Powered by Jetty://</small></i><hr/>\n\n</body>\n</html> ","current_state":"unstarted","requested_by_id":3078458,"url":"https://www.pivotaltracker.com/story/show/166606635","project_id":2182342,"owner_ids":[],"labels":[{"id":20237075,"project_id":2182342,"kind":"label","name":"insights - implementation support","created_at":"2018-07-05T07:10:24Z","updated_at":"2018-07-05T07:10:24Z"}]},{"kind":"story","id":165668968,"created_at":"2019-04-29T06:16:53Z","updated_at":"2019-06-17T11:35:58Z","estimate":5,"story_type":"feature","name":"Data Dictionary - No co-related properties shown","description":"When user goes to Data Dictionary and co relation exists  it displays the name of the co-relation and lists Property Name and Property Value, however user is unable to see what exact relation exists. Please refer to DataDictionary-NoProperties.png","current_state":"unstarted","requested_by_id":3078453,"url":"https://www.pivotaltracker.com/story/show/165668968","project_id":2182342,"owner_ids":[3078412,3086337,3133265],"labels":[{"id":20495207,"project_id":2182342,"kind":"label","name":"insights - revamped ui based on new branding standards.","created_at":"2018-09-19T06:52:06Z","updated_at":"2018-09-19T06:52:06Z"}],"owned_by_id":3078412},{"kind":"story","id":164137845,"created_at":"2019-02-21T12:31:06Z","updated_at":"2019-06-17T11:38:44Z","story_type":"chore","name":"ML/AI - Integration to Beta Insights","description":"1. After code merge, publish and deploy the changes to beta\n2. Migrate jenkins/ES data to beta environment\n3. Accommodate dashboards for AI/ML\n\nAcceptance - working dashboards that can be shown to customers. ","current_state":"unstarted","requested_by_id":2172989,"url":"https://www.pivotaltracker.com/story/show/164137845","project_id":2182342,"owner_ids":[3078460],"labels":[],"owned_by_id":3078460},{"kind":"story","id":166320022,"created_at":"2019-05-29T06:06:42Z","updated_at":"2019-05-29T06:06:42Z","story_type":"bug","name":"Agent Tool Credential Failure/Expired doesn't show any error log in Health Check Page","description":"During implementation of Pizza Hut, We've observed that  Agent Tool Credential Failure/Expired doesn't show any error log in Health Check Page,. It doesn't add any log message in the corresponding Agent log file.\n\n1.  We need to add this use case in the log file. This will help user to make aware of password failure.\n\n2. Pizza Hut customers requested to add this feature along with a mail trigger to corresponding support DL.\n\n","current_state":"unstarted","requested_by_id":3078457,"url":"https://www.pivotaltracker.com/story/show/166320022","project_id":2182342,"owner_ids":[3078458],"labels":[{"id":20237118,"project_id":2182342,"kind":"label","name":"insights - adoption increase","created_at":"2018-07-05T07:22:51Z","updated_at":"2018-07-05T07:22:51Z"},{"id":20237075,"project_id":2182342,"kind":"label","name":"insights - implementation support","created_at":"2018-07-05T07:10:24Z","updated_at":"2018-07-05T07:10:24Z"}],"owned_by_id":3078458},{"kind":"story","id":166283545,"created_at":"2019-05-28T10:01:28Z","updated_at":"2019-06-17T11:44:06Z","story_type":"feature","name":"Password Reset / Retrieval for Insights ","description":"At this time we do not have any functionality in our Insights to reset or retrieve the password.\n\n**Use Case - Single Sign ON** - We need to provide a message (Forgot Password - please use the organizations password system)\n\n**Use Case - Custom Password** - Either have a link to reset / retrieve password OR Please contact your admin (with mailto: link) to reset your password) \nPS: Can customer request for  login configuration - like what Vishwajit demoed for Grafana?","current_state":"unstarted","requested_by_id":3078453,"url":"https://www.pivotaltracker.com/story/show/166283545","project_id":2182342,"owner_ids":[3078412,3078458],"labels":[{"id":20495207,"project_id":2182342,"kind":"label","name":"insights - revamped ui based on new branding standards.","created_at":"2018-09-19T06:52:06Z","updated_at":"2018-09-19T06:52:06Z"}],"owned_by_id":3078412},{"kind":"story","id":166283452,"created_at":"2019-05-28T09:55:22Z","updated_at":"2019-06-17T11:45:11Z","story_type":"chore","name":"Documentation - Template to gather customer requirement","description":"**In last few stand up calls it has been observed that**\n\n1. The hardware is not configured as per Help Pages\n2. H/W configuration leading to excess time in software installation \n3. Many times proper access and rights have not been provided \n4. Post configuration of Insights - additional help is requested and that leads to escalation\n5. Ports are not opened prior to Configuring Insights\n6. Many times boxes are not available over internet and we need to install Apache 2 to configure reverse proxy\n7. Agent Tool credentials and accesses are not granted on time\n8. Tools get added post Insights Installation\n9. No defined limit of support from our team\n10. Type of KT to be provided is not restricted \n11. Type of data - existing or fresh - migration leads to issues and increased support\n\nThis is impacting the deliverable and again leads to escalations. \n\n**Proposal**\n1. Quick walk through of our help pages during demo\n2. Educate customer on limit of our support\n3. Detailed requirement Document\n4. Change Request Form\n5. Checklist of Infrastructure\n6. Essential video links to be shared prior to KT and KT mostly limited to Q&A \n7. Educate customer about no SMTP support at this time\n\n","current_state":"unstarted","requested_by_id":3078453,"url":"https://www.pivotaltracker.com/story/show/166283452","project_id":2182342,"owner_ids":[3078412],"labels":[{"id":20237118,"project_id":2182342,"kind":"label","name":"insights - adoption increase","created_at":"2018-07-05T07:22:51Z","updated_at":"2018-07-05T07:22:51Z"}],"owned_by_id":3078412},{"kind":"story","id":165677446,"created_at":"2019-04-29T13:06:00Z","updated_at":"2019-06-17T09:08:25Z","story_type":"bug","name":"Insights Setup for OneDevOps ","description":"the current onedevops sprint score card - code commit details are not correct. The panels which contains information in terms of active branches and commits inside the current sprint are not reflecting the correct data. Requesting you to do the necessary data validation and change the same ","current_state":"unstarted","requested_by_id":3078412,"url":"https://www.pivotaltracker.com/story/show/165677446","project_id":2182342,"owner_ids":[3078454],"labels":[{"id":21066298,"project_id":2182342,"kind":"label","name":"insights - dog fooding","created_at":"2019-03-04T11:21:14Z","updated_at":"2019-03-04T11:21:14Z"}],"owned_by_id":3078454},{"kind":"story","id":164049044,"created_at":"2019-02-18T13:40:40Z","updated_at":"2019-06-17T11:50:15Z","estimate":8,"story_type":"feature","name":"Insights UI3-Responsive Design","description":"Make the web pages Responsive using Bootstrap.","current_state":"unstarted","requested_by_id":3133265,"url":"https://www.pivotaltracker.com/story/show/164049044","project_id":2182342,"owner_ids":[3133265,3078412],"labels":[{"id":20495207,"project_id":2182342,"kind":"label","name":"insights - revamped ui based on new branding standards.","created_at":"2018-09-19T06:52:06Z","updated_at":"2018-09-19T06:52:06Z"}],"owned_by_id":3133265},{"kind":"story","id":162374130,"created_at":"2018-12-03T07:13:05Z","updated_at":"2019-06-17T11:52:00Z","estimate":5,"story_type":"feature","name":"Spinnaker Setup and Review","description":"In order to provide cloud agnostic pipelines and provide capabilities it has been decided to evaluate Spinnaker to see what capabilities it can bring to the table. \n\nThe goal is to recreate the setup with Spinnaker and see if we can deploy atleast 2 or 3 sample applications with microservices to cloud providers - AWS & Azure. \n\nThe goal is to understand the capabilities and see if it can be plugged as the default pipeline of choice for customers trying to move to different cloud providers. \n\nAlso see if we can give them default templates for different cloud - so that this could be packaged as 2.0. Also we need to highlight what would be our differentiators - just doing a white label of spinnaker will not help. ","current_state":"unstarted","requested_by_id":3078412,"url":"https://www.pivotaltracker.com/story/show/162374130","project_id":2182342,"owner_ids":[3058664,3078412],"labels":[{"id":20773534,"project_id":2182342,"kind":"label","name":"buildon 2.0 - research","created_at":"2018-12-03T07:00:11Z","updated_at":"2018-12-03T07:00:11Z"}],"owned_by_id":3058664},{"kind":"story","id":165056494,"created_at":"2019-04-02T11:56:59Z","updated_at":"2019-06-17T11:56:06Z","story_type":"feature","name":"Grafana Panel - insightsCharts2.0 Panel rendering with different background color. ","description":"Grafana Panel insightsCharts2.0 Panel rendering with background color for panel and text color. ","current_state":"unstarted","requested_by_id":3086337,"url":"https://www.pivotaltracker.com/story/show/165056494","project_id":2182342,"owner_ids":[3078412],"labels":[],"owned_by_id":3078412},{"kind":"story","id":164950706,"created_at":"2019-03-28T07:13:55Z","updated_at":"2019-03-28T18:25:18Z","story_type":"chore","name":"Data Dictionary - UX + Functional Enhancement (Tool selection) ","description":"http://insights.cogdevops.com:8080/app/#/InSights/Home\n1. No properties found for selected tool - Label:(SCM:GIT) \n\nThis may not happen in real life scenario - however, if it does happen does that mean that the tool was not configured properly? If yes should we ask the user to Edit/Update the Tool with no properties through Agent Management? \n\n___________________________\n\nhttp://34.236.204.95:8080/beta/#/InSights/Home\n1. GIT Properties - Label:(SCM:GIT) (no properties listed)\n2. DUMMYDATA Properties - Label:(DUMMY:DUMMYDATA) - has properties listed\n3. No Correlations found between the selected tools:(GIT:DUMMYDATA)\n\nIn this instance there were no properties listed under GIT, hence \"Click to Show Correlation\" should not have been active. \n\n___________________________\n\nhttp://insights.cogdevops.com:8080/app/#/InSights/Home\n1. Both Tools has properties but there is no co-relation\n2. No Correlations found between the selected tools:(GIT:SONAR)\n\nCould we add a message saying Please click on \"Reset Selected Tools\" to clear the existing selection and select different sets of tools to see the Correlation.\n\n_________________________\n\nWhat happens when the user sees the Correlation - how does he know that he needs to reset the tools to see new correlation?\nSuggestion - Please click on \"Reset Selected Tools\" to clear the existing selection and select different sets of tools to view the Correlation.","current_state":"unstarted","requested_by_id":3078453,"url":"https://www.pivotaltracker.com/story/show/164950706","project_id":2182342,"owner_ids":[3078412,3078458,3086337],"labels":[{"id":20495207,"project_id":2182342,"kind":"label","name":"insights - revamped ui based on new branding standards.","created_at":"2018-09-19T06:52:06Z","updated_at":"2018-09-19T06:52:06Z"}],"owned_by_id":3078412},{"kind":"story","id":164925050,"created_at":"2019-03-27T10:47:06Z","updated_at":"2019-06-17T12:00:15Z","story_type":"chore","name":"Data Dictionary UX enhancement - Add Reset Button","description":"When the user selects 2 tools and in the event there is no option for the user to \"clear the selection\"\n- Clicking on Data Dictionary main menu link does not refresh the page\n- Clicking the refresh button on browser takes the user to the landing page\n- Or the User has to go to some other menu and come back to Data Dictionary - this is difficult to explain to user\n\nSolution: We can add a Button \"Reset the Selected Tools\" - that way the user knows that both tools will be reset - Clear selection may lead to confusion of which of the tools would get reset, alternatively we can give a tool tip - Reset Tool 1 and Tool 2. \n\nI have attached a screen to show position of the button. ","current_state":"unstarted","requested_by_id":3078453,"url":"https://www.pivotaltracker.com/story/show/164925050","project_id":2182342,"owner_ids":[3078412,3078458],"labels":[{"id":20495207,"project_id":2182342,"kind":"label","name":"insights - revamped ui based on new branding standards.","created_at":"2018-09-19T06:52:06Z","updated_at":"2018-09-19T06:52:06Z"}],"owned_by_id":3078412},{"kind":"story","id":164360859,"created_at":"2019-03-04T06:02:27Z","updated_at":"2019-03-04T06:02:33Z","story_type":"bug","name":"Inconsistent revolving progress bar when you click show details page","description":"Inconsistent revolving progress bar when you click show details page","current_state":"unstarted","requested_by_id":2172989,"url":"https://www.pivotaltracker.com/story/show/164360859","project_id":2182342,"owner_ids":[3139719],"labels":[{"id":20791852,"project_id":2182342,"kind":"label","name":"hl-ui-tasks","created_at":"2018-12-07T08:46:51Z","updated_at":"2018-12-07T08:46:51Z"}],"owned_by_id":3139719},{"kind":"story","id":164328212,"created_at":"2019-03-01T10:53:12Z","updated_at":"2019-06-17T12:08:19Z","story_type":"bug","name":"Grafan is showing save dialog after opening any dashboard with Inference panel","description":"Steps -\n1. Open any dashboard having Inference panel\n2. Hover over any KPI\n3. Change to different dashboard\n\nExpected - Grafana should smoothly move to new dashboard\nCurrent behavior - Grafana shows Save/Discard/Cancel dialog box.","current_state":"unstarted","requested_by_id":3078458,"url":"https://www.pivotaltracker.com/story/show/164328212","project_id":2182342,"owner_ids":[3146994],"labels":[],"owned_by_id":3146994},{"kind":"story","id":163354590,"created_at":"2019-01-21T06:04:03Z","updated_at":"2019-06-24T09:58:19Z","story_type":"feature","name":"Insights - Safari browser support","description":"Many of Insights target customer uses Mac OS and Safari browser. It is critical that Insights UI works both on Chrome as well as Safari. This story covers testing and fixing UI issues on Safari browser.","current_state":"unstarted","requested_by_id":3078458,"url":"https://www.pivotaltracker.com/story/show/163354590","project_id":2182342,"owner_ids":[3133265],"labels":[{"id":20237118,"project_id":2182342,"kind":"label","name":"insights - adoption increase","created_at":"2018-07-05T07:22:51Z","updated_at":"2018-07-05T07:22:51Z"}],"owned_by_id":3133265},{"kind":"story","id":160307448,"created_at":"2018-09-06T05:13:52Z","updated_at":"2019-06-24T09:59:07Z","estimate":2,"story_type":"feature","name":"Insights - AMEX Implementation Support","description":"To track Insights - AMEX Implementation Support","current_state":"unstarted","requested_by_id":3078458,"url":"https://www.pivotaltracker.com/story/show/160307448","project_id":2182342,"owner_ids":[3080311,3086811],"labels":[{"id":20237075,"project_id":2182342,"kind":"label","name":"insights - implementation support","created_at":"2018-07-05T07:10:24Z","updated_at":"2018-07-05T07:10:24Z"}],"owned_by_id":3080311},{"kind":"story","id":159315949,"created_at":"2018-07-25T20:20:41Z","updated_at":"2018-12-04T08:40:54Z","story_type":"feature","name":"Insights: Sonar Agent Changes ","description":"As part of Kaiser Implementation - there is a need to tag the details of the code quality metrics with the Sonar Project details so that we are able to show the trend of the code quality over a period of time. This functionality will also help other customers and hence it is vital that is part of the SONAR agent of the core product. \n\nThe changes would be done in the Kaiser environment and from there the changes would be integrated to the main product branch. ","current_state":"unstarted","requested_by_id":3078412,"url":"https://www.pivotaltracker.com/story/show/159315949","project_id":2182342,"owner_ids":[3078454,3058664],"labels":[{"id":20237118,"project_id":2182342,"kind":"label","name":"insights - adoption increase","created_at":"2018-07-05T07:22:51Z","updated_at":"2018-07-05T07:22:51Z"},{"id":20237075,"project_id":2182342,"kind":"label","name":"insights - implementation support","created_at":"2018-07-05T07:10:24Z","updated_at":"2018-07-05T07:10:24Z"}],"owned_by_id":3078454},{"kind":"story","id":159247137,"created_at":"2018-07-23T18:43:16Z","updated_at":"2019-06-24T10:02:32Z","story_type":"feature","name":"Insights: Spike - Spilt of Data for enabling Horizontal Scalability. ","description":"In order to allow large enterprise customers store more amount of Data inside Neo4j and enable customers to create aggregation using that data - Insights should have the capability to horizontally scale and we intend to use data split approaches to solve the problem\n\nThe spike is to understand the options which are available and also to recommend what should be the approach we should be taking and what would be the changes needed in the various components of Insights. \n\nExpectations \n\nAbility to spilt the data into 3 or more Buckets based on time frame. \nFirst bucket - Hot bucket which will have the most recent data \nSecond Bucket - Warm Bucket which will have data a little older than hot bucket but newer than the cold bucket\nThird Bucket - Cold Bucket will have really old data. \n\nThese buckets could be spilt across multiple neo4j instances. Following are the use cases for which the approach is needed. \n\nData classification - How do we move data between the buckets configured and what will happen to the relationships during the data movement. \n\nData Search - When data is being searched and if the query involves a timeframe which is spanning across multiple buckets of data how will the query and the service behaves. \n\nSpike should have approach for the following \n\nConfigurations for the data buckets\nWhere and how will the data classification happen and it's impact on relationships between the existing data\nHow the search query work and what are the changes needed at the platform service level.  \n","current_state":"unstarted","requested_by_id":3078412,"url":"https://www.pivotaltracker.com/story/show/159247137","project_id":2182342,"owner_ids":[],"labels":[{"id":20237118,"project_id":2182342,"kind":"label","name":"insights - adoption increase","created_at":"2018-07-05T07:22:51Z","updated_at":"2018-07-05T07:22:51Z"},{"id":20237075,"project_id":2182342,"kind":"label","name":"insights - implementation support","created_at":"2018-07-05T07:10:24Z","updated_at":"2018-07-05T07:10:24Z"}]}],"start":"2019-07-08T07:00:00Z","finish":"2019-07-22T07:00:00Z","kind":"iteration"}]
  },
  {
    "path": "/pivotal/services/v5/projects/2182342/iterations",
	"parameters" : {
		"limit": "10",
		"offset": "0",
		"fields": "number,project_id,length,team_strength,stories,start,finish,kind,velocity,analytics"
	},	
	"response": [{"number":1,"project_id":2182342,"length":2,"team_strength":1,"stories":[{"kind":"story","id":158890609,"created_at":"2018-07-07T15:07:16Z","updated_at":"2018-07-18T09:10:56Z","accepted_at":"2018-07-13T07:18:30Z","estimate":1,"story_type":"feature","name":"Insights - Agents 2.0 - Windows Installation Package to be updated","description":"Ensure that the windows installation package works seamlessly with the latest 4.2 version changes and Agents 2.0 installation is successful","current_state":"accepted","requested_by_id":3078412,"url":"https://www.pivotaltracker.com/story/show/158890609","project_id":2182342,"owner_ids":[3058670],"labels":[{"id":20237118,"project_id":2182342,"kind":"label","name":"insights - adoption increase","created_at":"2018-07-05T07:22:51Z","updated_at":"2018-07-05T07:22:51Z"}],"owned_by_id":3058670},{"kind":"story","id":158890657,"created_at":"2018-07-07T15:20:54Z","updated_at":"2018-07-19T20:30:57Z","accepted_at":"2018-07-19T20:30:56Z","estimate":2,"story_type":"feature","name":"Insights - Data Purging Feature Release","description":"In order to limit the size of the growing records in Neo4j  - it is necessary to purge the records in Neo4j by moving them to flat file based on a configurable timestamp. \n\nThe feature should be part of the admin activities and it should also have the capability to restore the data back to Neo4j if needed. \n\nAlso the feature should have clear documentation in the confluence link which should be self explanatory and users should be able to use the functionality with minimal support. ","current_state":"accepted","requested_by_id":3078412,"url":"https://www.pivotaltracker.com/story/show/158890657","project_id":2182342,"owner_ids":[3078456,3078458],"labels":[{"id":20237118,"project_id":2182342,"kind":"label","name":"insights - adoption increase","created_at":"2018-07-05T07:22:51Z","updated_at":"2018-07-05T07:22:51Z"}],"owned_by_id":3078456}],"start":"2018-07-09T07:00:00Z","finish":"2018-07-23T07:00:00Z","kind":"iteration","velocity":100,"analytics":{"kind":"analytics","stories_accepted":2,"bugs_created":2,"cycle_time":537330000,"rejection_rate":65.0}}]
  },
  {
    "path": "/pivotal/services/v5/projects/2182342/iterations.*",
    "response": []
  }
 ]